{
  "version": "1.0.0",
  "authors": [],
  "license": "MIT",
  "ignore": [
    "**/.*",
    "node_modules",
    "bower_components",
    "test",
    "tests"
  ],
  "dependencies": {
    "angular-bootstrap": "^2.0.1",
    "bootstrap": "^3.3.7",
    "angular-ui-router": "0.3.x",
    "angular-animate": "^1.5.8",
    "angular-gettext": "^2.3.4",
    "angular-scroll": "^1.0.0",
    "angular-ui-router-title": "^0.0.4",
    "angular-loading-bar": "^0.9.0",
    "angular-bootstrap-custom": "https://github.com/gerasev-kirill/uib-custom-build.git"
  },
  "overrides": {
    "bootstrap": {
      "main": [
        "less/bootstrap.less"
      ]
    },
    "jquery": {
      "main": []
    },
    "world-flags-sprite": {
      "main": []
    },
    "components-font-awesome": {
      "main": [
        "css/font-awesome.min.css"
      ]
    },
    "angular-bootstrap": {
      "main": [
        "../angular-bootstrap-custom/ui-bootstrap-custom-tpls-1.3.3.min.js"
      ]
    },
    "angular-bootstrap-custom": {
      "main": []
    },
    "less.js": {
      "main": []
    }
  },
  "devDependencies": {}
}
